tests/ifc.vcd
$date
	Fri Nov 17 17:36:20 2023
$end
$version
	Icarus Verilog
$end
$timescale
	1ps
$end
$scope module ifc_test $end
$var wire 1 ! RST_N $end
$var wire 8 " cfg_address [7:0] $end
$var wire 32 # cfg_data_in [31:0] $end
$var wire 1 $ cfg_en $end
$var wire 1 % cfg_op $end
$var wire 1 & cfg_rdy $end
$var wire 1 ' din_en $end
$var wire 8 ( din_value [7:0] $end
$var wire 1 ) dout_en $end
$var wire 1 * len_en $end
$var wire 1 + len_rdy $end
$var wire 8 , len_value [7:0] $end
$var wire 8 - dout_value [7:0] $end
$var wire 1 . dout_rdy $end
$var wire 1 / din_rdy $end
$var wire 32 0 cfg_data_out [31:0] $end
$var reg 1 1 CLK $end
$scope module dut $end
$var wire 1 1 CLK $end
$var wire 1 2 \MUX_programmed_length$write_1__SEL_1 $end
$var wire 1 ! RST_N $end
$var wire 1 3 \busy$EN $end
$var wire 8 4 cfg_address [7:0] $end
$var wire 32 5 cfg_data_in [31:0] $end
$var wire 1 $ cfg_en $end
$var wire 1 % cfg_op $end
$var wire 1 & cfg_rdy $end
$var wire 8 6 \current_count$D_IN [7:0] $end
$var wire 1 7 \current_count$EN $end
$var wire 1 ' din_en $end
$var wire 1 / din_rdy $end
$var wire 8 8 din_value [7:0] $end
$var wire 1 ) dout_en $end
$var wire 1 9 \dout_ff$CLR $end
$var wire 1 : \dout_ff$DEQ $end
$var wire 1 ; \dout_ff$ENQ $end
$var wire 1 . dout_rdy $end
$var wire 8 < dout_value [7:0] $end
$var wire 1 * len_en $end
$var wire 1 + len_rdy $end
$var wire 8 = len_value [7:0] $end
$var wire 1 > \pause$EN $end
$var wire 1 ? \programmed_length$EN $end
$var wire 1 @ \sum$EN $end
$var wire 1 A \sw_override$EN $end
$var wire 1 B \w_sw_override$whas $end
$var wire 17 C x__h969 [16:0] $end
$var wire 1 D \sw_override$D_IN $end
$var wire 8 E \sum$D_IN [7:0] $end
$var wire 8 F \programmed_length$D_IN [7:0] $end
$var wire 1 G \pause$D_IN $end
$var wire 8 H next_count__h523 [7:0] $end
$var wire 1 I \dout_ff$FULL_N $end
$var wire 1 J \dout_ff$EMPTY_N $end
$var wire 8 K \dout_ff$D_OUT [7:0] $end
$var wire 8 L \dout_ff$D_IN [7:0] $end
$var wire 1 M current_count_PLUS_1_EQ_programmed_length___d8 $end
$var wire 32 N cfg_data_out [31:0] $end
$var wire 1 O \busy$D_IN $end
$var reg 32 P CASE_cfg_address_0_0_CONCAT_x69_4_0_CONCAT_sw__ETC__q1 [31:0] $end
$var reg 1 Q busy $end
$var reg 8 R current_count [7:0] $end
$var reg 1 S pause $end
$var reg 8 T programmed_length [7:0] $end
$var reg 8 U sum [7:0] $end
$var reg 1 V sw_override $end
$scope module dout_ff $end
$var wire 1 1 CLK $end
$var wire 1 9 CLR $end
$var wire 1 : DEQ $end
$var wire 8 W D_IN [7:0] $end
$var wire 1 J EMPTY_N $end
$var wire 1 ; ENQ $end
$var wire 1 I FULL_N $end
$var wire 1 ! RST $end
$var wire 1 X d0d1 $end
$var wire 1 Y d0di $end
$var wire 1 Z d0h $end
$var wire 1 [ d1di $end
$var wire 8 \ D_OUT [7:0] $end
$var reg 8 ] data0_reg [7:0] $end
$var reg 8 ^ data1_reg [7:0] $end
$var reg 1 _ empty_reg $end
$var reg 1 ` full_reg $end
$scope begin error_checks $end
$var reg 1 a deqerror $end
$var reg 1 b enqerror $end
$upscope $end
$upscope $end
$upscope $end
$upscope $end
$enddefinitions $end
#0
$dumpvars
xb
xa
1`
0_
b10101010 ^
b10101010 ]
b10101010 \
0[
1Z
0Y
0X
b10101010 W
0V
b10101010 U
b10101010 T
0S
b10101010 R
0Q
b1010101010101010 P
1O
b1010101010101010 N
0M
b10101010 L
b10101010 K
0J
1I
b10101011 H
0G
b0 F
b10101010 E
0D
b1010101010101010 C
0B
0A
0@
0?
0>
b0 =
b10101010 <
0;
0:
09
b0 8
07
b10101011 6
b0 5
b0 4
03
02
01
b1010101010101010 0
1/
0.
b10101010 -
b0 ,
1+
0*
0)
b0 (
0'
1&
0%
0$
b0 #
b0 "
1!
$end
#5000
b0 0
b0 N
b0 P
b0 E
b0 L
b0 W
b0 U
b0 T
b1 6
b1 H
b0 C
b0 R
0!
0b
0a
11
#10000
01
#15000
1!
11
#20000
01
#25000
11
#30000
01
#35000
11
#40000
01
#45000
11
#50000
01
#55000
11
#60000
01
#65000
11
#70000
01
#75000
11
#80000
01
#85000
b1010 F
1?
12
b1010 ,
b1010 =
1*
11
#90000
01
#95000
b0 F
0?
02
0*
b101000000000 0
b101000000000 N
b101000000000 P
b101000000000 C
b1010 T
11
#100000
01
#105000
11
#110000
01
#115000
11
#120000
01
#125000
11
#130000
01
#135000
11
#140000
01
#145000
11
#150000
01
#155000
11
#160000
01
#165000
11
#170000
01
#175000
11
#180000
01
#185000
11
#190000
01
#195000
11
#200000
01
#205000
11
#210000
01
#215000
11
#220000
01
#225000
11
#230000
01
#235000
11
#240000
01
#245000
11
#250000
01
#255000
11
#260000
01
#265000
11
#270000
01
#275000
11
#280000
01
#285000
11
#290000
01
#295000
17
1@
b1 E
b1 L
b1 W
b1 (
b1 8
13
1'
11
#300000
01
#305000
07
0@
03
0'
b10000101000000001 0
b10000101000000001 N
b10000101000000001 P
b10 E
b10 L
b10 W
b1 U
b10 6
b10 H
b1 R
b10000101000000001 C
1Q
11
#310000
17
1@
b101 E
b101 L
b101 W
b100 (
b100 8
13
1'
01
#315000
07
0@
03
0'
b10000101000000010 0
b10000101000000010 N
b10000101000000010 P
b1001 E
b1001 L
b1001 W
b101 U
b11 6
b11 H
b10000101000000010 C
b10 R
11
#320000
01
#325000
11
#330000
01
#335000
11
#340000
01
#345000
11
#350000
01
#355000
11
#360000
01
#365000
11
#370000
01
#375000
11
#380000
01
#385000
11
#390000
01
#395000
11
#400000
01
#405000
11
#410000
01
#415000
11
#420000
01
#425000
11
#430000
01
#435000
11
#440000
01
#445000
11
#450000
01
#455000
11
#460000
01
#465000
11
#470000
01
#475000
11
#480000
01
#485000
11
#490000
01
#495000
11
#500000
01
#505000
11
#510000
01
#515000
17
1@
b111 E
b111 L
b111 W
b10 (
b10 8
13
1'
11
#520000
01
#525000
07
0@
03
0'
b10000101000000011 0
b10000101000000011 N
b10000101000000011 P
b1001 E
b1001 L
b1001 W
b111 U
b100 6
b100 H
b10000101000000011 C
b11 R
11
#530000
01
#535000
11
#540000
01
#545000
11
#550000
01
#555000
11
#560000
01
#565000
11
#570000
01
#575000
11
#580000
01
#585000
11
#590000
01
#595000
11
#600000
01
#605000
11
#610000
01
#615000
11
#620000
01
#625000
11
#630000
01
#635000
11
#640000
01
#645000
11
#650000
01
#655000
11
#660000
01
#665000
11
#670000
01
#675000
11
#680000
01
#685000
11
#690000
01
#695000
11
#700000
01
#705000
17
1@
b101000 E
b101000 L
b101000 W
b100001 (
b100001 8
13
1'
11
#710000
01
#715000
07
0@
03
0'
b10000101000000100 0
b10000101000000100 N
b10000101000000100 P
b1001001 E
b1001001 L
b1001001 W
b101000 U
b101 6
b101 H
b10000101000000100 C
b100 R
11
#720000
01
#725000
11
#730000
01
#735000
11
#740000
01
#745000
11
#750000
01
#755000
11
#760000
01
#765000
11
#770000
01
#775000
17
1@
b110010 E
b110010 L
b110010 W
b1010 (
b1010 8
13
1'
11
#780000
01
#785000
07
0@
03
0'
b10000101000000101 0
b10000101000000101 N
b10000101000000101 P
b111100 E
b111100 L
b111100 W
b110010 U
b110 6
b110 H
b10000101000000101 C
b101 R
11
#790000
01
#795000
11
#800000
01
#805000
11
#810000
01
#815000
11
#820000
01
#825000
17
1@
b1000110 E
b1000110 L
b1000110 W
b10100 (
b10100 8
13
1'
11
#830000
01
#835000
07
0@
03
0'
b10000101000000110 0
b10000101000000110 N
b10000101000000110 P
b1011010 E
b1011010 L
b1011010 W
b1000110 U
b111 6
b111 H
b10000101000000110 C
b110 R
11
#840000
01
#845000
11
#850000
01
#855000
11
#860000
01
#865000
11
#870000
01
#875000
11
#880000
01
#885000
11
#890000
01
#895000
11
#900000
01
#905000
11
#910000
01
#915000
11
#920000
01
#925000
11
#930000
01
#935000
11
#940000
01
#945000
11
#950000
01
#955000
11
#960000
01
#965000
11
#970000
01
#975000
11
#980000
01
#985000
11
#990000
01
#995000
11
#1000000
01
#1005000
11
#1010000
01
#1015000
11
#1020000
01
#1025000
17
1@
13
1'
11
#1030000
01
#1035000
07
0@
03
0'
b10000101000000111 0
b10000101000000111 N
b10000101000000111 P
b1101110 E
b1101110 L
b1101110 W
b1011010 U
b1000 6
b1000 H
b10000101000000111 C
b111 R
11
#1040000
01
#1045000
11
#1050000
01
#1055000
11
#1060000
01
#1065000
17
1@
b1111001 E
b1111001 L
b1111001 W
b11111 (
b11111 8
13
1'
11
#1070000
01
#1075000
07
0@
03
0'
b10000101000001000 0
b10000101000001000 N
b10000101000001000 P
b10011000 E
b10011000 L
b10011000 W
b1111001 U
b1001 6
b1001 H
b10000101000001000 C
b1000 R
11
#1080000
01
#1085000
11
#1090000
01
#1095000
11
#1100000
01
#1105000
11
#1110000
01
#1115000
11
#1120000
01
#1125000
11
#1130000
01
#1135000
11
#1140000
01
#1145000
11
#1150000
01
#1155000
11
#1160000
01
#1165000
11
#1170000
01
#1175000
11
#1180000
01
#1185000
11
#1190000
01
#1195000
17
1@
b10001101 E
b10001101 L
b10001101 W
b10100 (
b10100 8
13
1'
11
#1200000
01
#1205000
03
0'
1Z
0Y
b10000101000001001 0
b10000101000001001 N
0@
07
0;
b10000101000001001 P
b10100001 E
b10100001 L
b10100001 W
b10001101 U
0O
1M
b1010 6
b1010 H
b10000101000001001 C
b1001 R
11
#1210000
01
#1215000
0Z
1Y
1;
b10010101 E
b10010101 L
b10010101 W
b1000 (
b1000 8
13
1'
11
#1220000
01
#1225000
0;
1:
1)
03
0'
1Z
0Y
b101000001001 0
b101000001001 N
0[
b101000001001 P
1.
1J
1_
b10010101 -
b10010101 <
b10010101 K
b10010101 \
b10010101 ]
b101000001001 C
0Q
11
#1230000
01
#1235000
b0 0
b0 N
b0 P
b1000 E
b1000 L
b1000 W
b0 U
b0 T
1O
0M
b1 6
b1 H
b0 C
b0 R
0!
0.
0J
0_
11
#1240000
01
#1245000
1!
11
#1250000
01
#1255000
1a
11
#1260000
01
#1265000
1a
11
#1270000
01
#1275000
1a
11
#1280000
01
#1285000
1a
11
#1290000
01
#1295000
1a
11
#1300000
01
#1305000
1a
11
#1310000
01
#1315000
1a
11
#1320000
01
#1325000
1a
11
#1330000
01
#1335000
1a
11
#1340000
01
#1345000
1a
11
#1350000
01
#1355000
1a
11
#1360000
01
#1365000
1a
11
#1370000
01
#1375000
1a
11
#1380000
01
#1385000
1a
11
#1390000
01
#1395000
1a
11
#1400000
01
#1405000
1a
11
#1410000
01
#1415000
1a
11
#1420000
01
#1425000
1a
11
#1430000
01
#1435000
b11 F
1?
12
b11 ,
b11 =
1*
1a
11
#1440000
01
#1445000
b0 F
0?
02
0*
b1100000000 0
b1100000000 N
b1100000000 P
b1100000000 C
b11 T
1a
11
#1450000
01
#1455000
1a
11
#1460000
01
#1465000
1a
11
#1470000
01
#1475000
1a
11
#1480000
01
#1485000
1a
11
#1490000
01
#1495000
1a
11
#1500000
01
#1505000
1a
11
#1510000
01
#1515000
1a
11
#1520000
01
#1525000
1a
11
#1530000
01
#1535000
1a
11
#1540000
01
#1545000
17
1@
b1 E
b1 L
b1 W
b1 (
b1 8
13
1'
1a
11
#1550000
01
#1555000
07
0@
03
0'
b10000001100000001 0
b10000001100000001 N
b10000001100000001 P
b10 E
b10 L
b10 W
b1 U
b10 6
b10 H
b1 R
b10000001100000001 C
1Q
1a
11
#1560000
01
#1565000
17
1@
b11 E
b11 L
b11 W
b10 (
b10 8
13
1'
1a
11
#1570000
01
#1575000
03
0'
0Y
1Z
b10000001100000010 0
b10000001100000010 N
0@
07
0;
b10000001100000010 P
b101 E
b101 L
b101 W
b11 U
0O
1M
b11 6
b11 H
b10000001100000010 C
b10 R
1a
11
#1580000
01
#1585000
1a
11
#1590000
01
#1595000
1a
11
#1600000
01
#1605000
1a
11
#1610000
01
#1615000
1a
11
#1620000
01
#1625000
1a
11
#1630000
01
#1635000
1a
11
#1640000
01
#1645000
1a
11
#1650000
01
#1655000
1a
11
#1660000
01
#1665000
1a
11
#1670000
01
#1675000
1Y
0Z
1;
b110 E
b110 L
b110 W
b11 (
b11 8
13
1'
1a
11
#1680000
01
#1685000
0Y
1Z
0;
03
0'
b1100000010 0
b1100000010 N
b1100000010 P
b110 -
b110 <
b110 K
b110 \
b110 ]
b1100000010 C
0Q
1a
11
#1690000
01
#1695000
b0 0
b0 N
b0 P
b11 E
b11 L
b11 W
b0 U
b0 T
1O
0M
b1 6
b1 H
b0 C
b0 R
0!
1a
11
#1700000
01
#1705000
1!
0a
11
#1710000
01
#1715000
1a
11
#1720000
01
#1725000
1a
11
#1730000
01
#1735000
1a
11
#1740000
01
#1745000
1a
11
#1750000
01
#1755000
1a
11
#1760000
01
#1765000
1a
11
#1770000
01
#1775000
1a
11
#1780000
01
#1785000
1a
11
#1790000
01
#1795000
1a
11
#1800000
01
#1805000
1a
11
#1810000
01
#1815000
1a
11
#1820000
01
#1825000
1a
11
#1830000
01
#1835000
b100 F
1?
12
b100 ,
b100 =
1*
1a
11
#1840000
01
#1845000
b0 F
0?
02
0*
b10000000000 0
b10000000000 N
b10000000000 P
b10000000000 C
b100 T
1a
11
#1850000
01
#1855000
1a
11
#1860000
01
#1865000
1a
11
#1870000
01
#1875000
1a
11
#1880000
01
#1885000
17
1@
b10 E
b10 L
b10 W
b10 (
b10 8
13
1'
1a
11
#1890000
01
#1895000
07
0@
03
0'
b10000010000000001 0
b10000010000000001 N
b10000010000000001 P
b100 E
b100 L
b100 W
b10 U
b10 6
b10 H
b1 R
b10000010000000001 C
1Q
1a
11
#1900000
01
#1905000
1a
11
#1910000
01
#1915000
1a
11
#1920000
01
#1925000
1a
11
#1930000
01
#1935000
1a
11
#1940000
01
#1945000
17
1@
b111 E
b111 L
b111 W
b101 (
b101 8
13
1'
1a
11
#1950000
01
#1955000
07
0@
03
0'
b10000010000000010 0
b10000010000000010 N
b10000010000000010 P
b1100 E
b1100 L
b1100 W
b111 U
b11 6
b11 H
b10000010000000010 C
b10 R
1a
11
#1960000
01
#1965000
1a
11
#1970000
01
#1975000
1a
11
#1980000
01
#1985000
1a
11
#1990000
01
#1995000
1a
11
#2000000
01
#2005000
1a
11
#2010000
01
#2015000
1a
11
#2020000
01
#2025000
1a
11
#2030000
01
#2035000
1a
11
#2040000
01
#2045000
17
1@
b1101 E
b1101 L
b1101 W
b110 (
b110 8
13
1'
1a
11
#2050000
01
#2055000
03
0'
0Y
1Z
b10000010000000011 0
b10000010000000011 N
0@
07
0;
b10000010000000011 P
b10011 E
b10011 L
b10011 W
b1101 U
0O
1M
b100 6
b100 H
b10000010000000011 C
b11 R
1a
11
#2060000
01
#2065000
1a
11
#2070000
01
#2075000
1a
11
#2080000
01
#2085000
1a
11
#2090000
01
#2095000
1a
11
#2100000
01
#2105000
1a
11
#2110000
01
#2115000
1a
11
#2120000
01
#2125000
1Y
0Z
1;
b10100 E
b10100 L
b10100 W
b111 (
b111 8
13
1'
1a
11
#2130000
01
#2135000
0Y
1Z
0;
03
0'
b10000000011 0
b10000000011 N
b10000000011 P
b10100 -
b10100 <
b10100 K
b10100 \
b10100 ]
b10000000011 C
0Q
1a
11
#2140000
01
#2145000
1a
11
#2150000
01
#2155000
b0 0
b0 N
b0 P
b111 E
b111 L
b111 W
b0 U
b0 T
1O
0M
b1 6
b1 H
b0 C
b0 R
0!
1a
11
#2160000
01
#2165000
1!
0a
11
#2170000
01
#2175000
1a
11
#2180000
01
#2185000
1a
11
#2190000
01
#2195000
1a
11
#2200000
01
#2205000
1a
11
#2210000
01
#2215000
1a
11
#2220000
01
#2225000
1a
11
#2230000
01
#2235000
1a
11
#2240000
01
#2245000
1a
11
#2250000
01
#2255000
1a
11
#2260000
01
#2265000
1a
11
#2270000
01
#2275000
1a
11
#2280000
01
#2285000
1a
11
#2290000
01
#2295000
1a
11
#2300000
01
#2305000
1a
11
#2310000
01
#2315000
1a
11
#2320000
01
#2325000
1a
11
#2330000
01
#2335000
b1 F
1D
1>
1A
1B
b1 #
b1 5
1%
b100 "
b100 4
1$
1a
11
#2340000
01
#2345000
0>
0A
0B
b1 0
b1 N
0%
b1 P
1V
1a
11
#2350000
01
#2355000
0$
1a
11
#2360000
01
#2365000
1?
b1100 F
0D
b0 0
b0 N
b0 P
b1100 #
b1100 5
1%
b1000 "
b1000 4
1$
1a
11
#2370000
01
#2375000
0?
b1100 0
b1100 N
0%
b1100 P
b110000000000 C
b1100 T
1a
11
#2380000
01
#2385000
0$
1a
11
#2390000
01
#2395000
1a
11
#2400000
01
#2405000
1a
11
#2410000
01
#2415000
1a
11
#2420000
01
#2425000
1a
11
#2430000
01
#2435000
1a
11
#2440000
01
#2445000
1a
11
#2450000
01
#2455000
1a
11
#2460000
01
#2465000
1a
11
#2470000
01
#2475000
1a
11
#2480000
01
#2485000
1a
11
#2490000
01
#2495000
1a
11
#2500000
01
#2505000
1a
11
#2510000
01
#2515000
17
1@
b1 E
b1 L
b1 W
b1 (
b1 8
13
1'
1a
11
#2520000
01
#2525000
07
0@
03
0'
b10 E
b10 L
b10 W
b1 U
b10 6
b10 H
b1 R
b10000110000000001 C
1Q
1a
11
#2530000
01
#2535000
1a
11
#2540000
01
#2545000
1a
11
#2550000
01
#2555000
1a
11
#2560000
01
#2565000
1a
11
#2570000
01
#2575000
1a
11
#2580000
01
#2585000
1a
11
#2590000
01
#2595000
1a
11
#2600000
01
#2605000
1a
11
#2610000
01
#2615000
1a
11
#2620000
01
#2625000
1a
11
#2630000
01
#2635000
1a
11
#2640000
01
#2645000
1a
11
#2650000
01
#2655000
1a
11
#2660000
01
#2665000
1a
11
#2670000
01
#2675000
17
1@
b101 E
b101 L
b101 W
b100 (
b100 8
13
1'
1a
11
#2680000
01
#2685000
07
0@
03
0'
b1001 E
b1001 L
b1001 W
b101 U
b11 6
b11 H
b10000110000000010 C
b10 R
1a
11
#2690000
01
#2695000
1a
11
#2700000
01
#2705000
1a
11
#2710000
01
#2715000
1a
11
#2720000
01
#2725000
1a
11
#2730000
01
#2735000
1a
11
#2740000
01
#2745000
1a
11
#2750000
01
#2755000
1a
11
#2760000
01
#2765000
1a
11
#2770000
01
#2775000
1a
11
#2780000
01
#2785000
17
1@
b1011 E
b1011 L
b1011 W
b110 (
b110 8
13
1'
1a
11
#2790000
01
#2795000
07
0@
03
0'
b10001 E
b10001 L
b10001 W
b1011 U
b100 6
b100 H
b10000110000000011 C
b11 R
1a
11
#2800000
17
1@
b101100 E
b101100 L
b101100 W
b100001 (
b100001 8
13
1'
01
#2805000
07
0@
03
0'
b1001101 E
b1001101 L
b1001101 W
b101100 U
b101 6
b101 H
b10000110000000100 C
b100 R
1a
11
#2810000
01
#2815000
1a
11
#2820000
01
#2825000
1a
11
#2830000
01
#2835000
1a
11
#2840000
01
#2845000
1a
11
#2850000
01
#2855000
1a
11
#2860000
01
#2865000
1a
11
#2870000
01
#2875000
1a
11
#2880000
01
#2885000
1a
11
#2890000
01
#2895000
1a
11
#2900000
01
#2905000
1a
11
#2910000
01
#2915000
1a
11
#2920000
01
#2925000
1a
11
#2930000
01
#2935000
1a
11
#2940000
01
#2945000
1a
11
#2950000
01
#2955000
1a
11
#2960000
01
#2965000
17
1@
b111000 E
b111000 L
b111000 W
b1100 (
b1100 8
13
1'
1a
11
#2970000
01
#2975000
07
0@
03
0'
b1000100 E
b1000100 L
b1000100 W
b111000 U
b110 6
b110 H
b10000110000000101 C
b101 R
1a
11
#2980000
01
#2985000
1a
11
#2990000
01
#2995000
1a
11
#3000000
01
#3005000
1a
11
#3010000
01
#3015000
1a
11
#3020000
01
#3025000
1a
11
#3030000
01
#3035000
1a
11
#3040000
01
#3045000
17
1@
b1001100 E
b1001100 L
b1001100 W
b10100 (
b10100 8
13
1'
1a
11
#3050000
01
#3055000
07
0@
03
0'
b1100000 E
b1100000 L
b1100000 W
b1001100 U
b111 6
b111 H
b10000110000000110 C
b110 R
1a
11
#3060000
01
#3065000
1a
11
#3070000
01
#3075000
1a
11
#3080000
01
#3085000
17
1@
13
1'
1a
11
#3090000
01
#3095000
07
0@
03
0'
b1110100 E
b1110100 L
b1110100 W
b1100000 U
b1000 6
b1000 H
b10000110000000111 C
b111 R
1a
11
#3100000
01
#3105000
1a
11
#3110000
01
#3115000
1a
11
#3120000
01
#3125000
1a
11
#3130000
01
#3135000
1a
11
#3140000
01
#3145000
1a
11
#3150000
01
#3155000
1a
11
#3160000
01
#3165000
1a
11
#3170000
01
#3175000
1a
11
#3180000
01
#3185000
1a
11
#3190000
01
#3195000
1a
11
#3200000
01
#3205000
1a
11
#3210000
01
#3215000
1a
11
#3220000
01
#3225000
1a
11
#3230000
01
#3235000
17
1@
b1100011 E
b1100011 L
b1100011 W
b11 (
b11 8
13
1'
1a
11
#3240000
01
#3245000
07
0@
03
0'
b1100110 E
b1100110 L
b1100110 W
b1100011 U
b1001 6
b1001 H
b10000110000001000 C
b1000 R
1a
11
#3250000
01
#3255000
1a
11
#3260000
01
#3265000
1a
11
#3270000
01
#3275000
1a
11
#3280000
01
#3285000
1a
11
#3290000
01
#3295000
1a
11
#3300000
01
#3305000
1a
11
#3310000
01
#3315000
1a
11
#3320000
01
#3325000
1a
11
#3330000
01
#3335000
1a
11
#3340000
01
#3345000
1a
11
#3350000
01
#3355000
17
1@
b1101000 E
b1101000 L
b1101000 W
b101 (
b101 8
13
1'
1a
11
#3360000
01
#3365000
07
0@
03
0'
b1101101 E
b1101101 L
b1101101 W
b1101000 U
b1010 6
b1010 H
b10000110000001001 C
b1001 R
1a
11
#3370000
01
#3375000
1a
11
#3380000
01
#3385000
1a
11
#3390000
01
#3395000
1a
11
#3400000
01
#3405000
1a
11
#3410000
01
#3415000
1a
11
#3420000
01
#3425000
1a
11
#3430000
01
#3435000
1a
11
#3440000
01
#3445000
17
1@
b1110000 E
b1110000 L
b1110000 W
b1000 (
b1000 8
13
1'
1a
11
#3450000
01
#3455000
07
0@
03
0'
b1111000 E
b1111000 L
b1111000 W
b1110000 U
b1011 6
b1011 H
b10000110000001010 C
b1010 R
1a
11
#3460000
01
#3465000
1a
11
#3470000
01
#3475000
1a
11
#3480000
01
#3485000
1a
11
#3490000
01
#3495000
1a
11
#3500000
01
#3505000
1a
11
#3510000
01
#3515000
1a
11
#3520000
01
#3525000
1a
11
#3530000
01
#3535000
1a
11
#3540000
01
#3545000
1a
11
#3550000
01
#3555000
1a
11
#3560000
01
#3565000
1a
11
#3570000
01
#3575000
1a
11
#3580000
01
#3585000
1a
11
#3590000
01
#3595000
1a
11
#3600000
01
#3605000
1a
11
#3610000
01
#3615000
1a
11
#3620000
01
#3625000
1a
11
#3630000
01
#3635000
17
1@
b1110010 E
b1110010 L
b1110010 W
b10 (
b10 8
13
1'
1a
11
#3640000
01
#3645000
03
0'
0Y
1Z
0@
07
0;
b1110100 E
b1110100 L
b1110100 W
b1110010 U
0O
1M
b1100 6
b1100 H
b10000110000001011 C
b1011 R
1a
11
#3650000
01
#3655000
1a
11
#3660000
01
#3665000
1a
11
#3670000
01
#3675000
1a
11
#3680000
01
#3685000
1a
11
#3690000
01
#3695000
1a
11
#3700000
01
#3705000
1a
11
#3710000
01
#3715000
b1 F
1D
b0 0
b0 N
b1 P
1>
1A
1B
b1 #
b1 5
1%
b100 "
b100 4
1$
1a
11
#3720000
01
#3725000
0>
0A
0B
b1 0
b1 N
0%
1a
11
#3730000
01
#3735000
0$
1a
11
#3740000
01
#3745000
b10 F
1>
1A
1B
1G
0D
b0 0
b0 N
b10 #
b10 5
1%
1$
1a
11
#3750000
01
#3755000
0>
0A
0B
0%
b0 P
0V
1S
1a
11
#3760000
01
#3765000
0$
1a
11
#3770000
01
#3775000
b0 F
0G
b1100 P
b0 #
b0 5
1%
b1000 "
b1000 4
1$
1a
11
#3780000
01
#3785000
b1100 0
b1100 N
0%
1a
11
#3790000
01
#3795000
0$
1a
11
#3800000
01
#3805000
1a
11
#3810000
01
#3815000
1a
11
#3820000
01
#3825000
1a
11
#3830000
01
#3835000
1a
11
#3840000
01
#3845000
1a
11
#3850000
01
#3855000
1a
11
#3860000
01
#3865000
1a
11
#3870000
01
#3875000
1a
11
#3880000
01
#3885000
1a
11
#3890000
01
#3895000
1a
11
#3900000
01
#3905000
1a
11
#3910000
01
#3915000
1a
11
#3920000
01
#3925000
1Y
0Z
1;
13
1'
1a
11
#3930000
01
#3935000
0Y
1Z
0;
03
0'
0/
b1110100 -
b1110100 <
b1110100 K
b1110100 \
b1110100 ]
b110000001011 C
0Q
1a
11
#3940000
01
#3945000
1a
11
#3950000
01
#3955000
b1 F
1D
b0 0
b0 N
b0 P
1>
1A
1B
b1 #
b1 5
1%
b100 "
b100 4
1$
1a
11
#3960000
01
#3965000
0>
0A
0B
b1 0
b1 N
0%
1/
b1 P
1V
0S
1a
11
#3970000
01
#3975000
0$
1a
11
#3980000
01
#3985000
b10 F
1>
1A
1B
1G
0D
b0 0
b0 N
b10 #
b10 5
1%
1$
1a
11
#3990000
01
#3995000
0>
0A
0B
0%
0/
b0 P
0V
1S
1a
11
#4000000
01
#4005000
0$
1a
11
#4010000
01
#4015000
b0 F
0G
b1100 P
b0 #
b0 5
1%
b1000 "
b1000 4
1$
1a
11
#4020000
01
#4025000
b1100 0
b1100 N
0%
1a
11
#4030000
01
#4035000
0$
1a
11
#4040000
01
#4045000
1a
11
#4050000
01
#4055000
1a
11
#4060000
01
#4065000
1a
11
#4070000
01
#4075000
1a
11
